BicubicDDRTest/.Xil/Vivado-20196-DESKTOP-DD0PJLS/hw_ila_data_1/zip_work/waveform.vcd
$date
        2025-Jun-27 18:13:17
$end
$version
        Vivado v2022.2 (64-bit)
$end
$timescale
        1ps
$end
$scope module dut $end
$var reg 1 " BicubicDDRTest_i/system_ila_0/inst/probe0_1 $end
$var reg 1 # BicubicDDRTest_i/system_ila_0/inst/probe1_1 $end
$var reg 32 $ BicubicDDRTest_i/system_ila_0/inst/net_slot_0_axis_tdata [31:0] $end
$var reg 4 D BicubicDDRTest_i/system_ila_0/inst/net_slot_0_axis_tkeep [3:0] $end
$var reg 1 H BicubicDDRTest_i/system_ila_0/inst/net_slot_0_axis_tvalid $end
$var reg 1 I BicubicDDRTest_i/system_ila_0/inst/net_slot_0_axis_tready $end
$var reg 1 J BicubicDDRTest_i/system_ila_0/inst/net_slot_0_axis_tlast $end
$var reg 128 K BicubicDDRTest_i/system_ila_0/inst/net_slot_1_axis_tdata [127:0] $end
$var reg 1 m" BicubicDDRTest_i/system_ila_0/inst/net_slot_1_axis_tvalid $end
$var reg 1 n" BicubicDDRTest_i/system_ila_0/inst/net_slot_1_axis_tready $end
$var reg 1 o" BicubicDDRTest_i/system_ila_0/inst/net_slot_1_axis_tlast $end
$var reg 3 p" Interface__i1_s0___axi_dma_0_M_AXIS_MM2S_ [2:0] $end
$var reg 3 s" Interface__i1_s1___BicubicResizer_0_m_axis_ [2:0] $end
$var reg 3 v" T_Channel__i1_s0___axi_dma_0_M_AXIS_MM2S_ [2:0] $end
$var reg 3 y" T_Channel__i1_s1___BicubicResizer_0_m_axis_ [2:0] $end
$var reg 1 |" _TRIGGER $end
$var reg 1 }" _WINDOW $end
$var reg 1 ~" _GAP $end
$upscope $end
$enddefinitions $end
#0
$dumpvars
0"
0#
b0 $
b0 D
0H
1I
0J
b0 K
0m"
1n"
0o"
b0 p"
b11 s"
b0 v"
b11 y"
0|"
1}"
0~"
$end
#512
b11100111001010010000110 $
b1111 D
1H
b1 p"
b1 v"
1|"
#513
b10111111000011101110110 $
#514
b10001000111001001100100 $
#515
b1111000110110101011100 $
#516
b10100001000000001101111 $
#517
b10101101000010001110010 $
#518
b10011001000000001101010 $
#519
b10101001000010101110010 $
#520
b10101111000010101110011 $
#521
b10001010111011001100000 $
#522
b10011010111101001100011 $
#523
b10001100111101001100001 $
#524
b10011000111111101101000 $
#525
b10101101000001101101100 $
#526
b10010110111101001101011 $
#527
b10010000111101001100010 $
#528
b10000000111010101100000 $
#529
b10000110111011101011011 $
#530
b10000110111100001011011 $
#531
b1110110111010101010110 $
#532
b10010000111110001100001 $
#533
b1111010111011001011011 $
#534
b10010110111111001100111 $
#535
b11011011001000101111111 $
#536
b10110001000011101101110 $
#537
b10011101000001001100110 $
#538
b10001000111100001100000 $
#539
b10101101000001101110010 $
#540
b10001000111100001011101 $
#541
b10010101000001001101010 $
#542
b1101100111011001011001 $
#543
b1111100111101001011110 $
#544
b10100011000000001101111 $
#545
b10111111000100101110111 $
#546
b10010111000000001101001 $
#547
b10100001000010001110001 $
#548
b10011001000001101110100 $
#549
b10010100111111001101000 $
#550
b10011111000000001100111 $
#551
b10010110111110101100101 $
#552
b10111001000101001110100 $
#553
b10011100111110101100111 $
#554
b11000111000101101110101 $
#555
b10000010111100101100010 $
#556
b10100111000101001110100 $
#557
b10110011000100101110011 $
#558
b10001010111110101100110 $
#559
b10000110111101001100101 $
#560
b10100001000000101101110 $
#561
b10100101000001101110101 $
#562
b11000101000101101110101 $
#563
b10110000111111101100111 $
#564
b11101001001011101111100 $
#565
b10110001000110001101110 $
#566
b11000001001000001110100 $
#567
b10111101000101101101111 $
#568
b10111101001001001111001 $
#569
b11111011001110110001100 $
#570
b11001111001001101111011 $
#571
b10111101001001001111001 $
#572
b11001011001010101111100 $
#573
b11001101000111101110110 $
#574
b10100101000000101101011 $
#575
b10101011000100101110001 $
#576
b11001001000111001110110 $
#577
b11001101000100101111000 $
#578
b10001100111001101100000 $
#579
b10011100111110101101111 $
#580
b10010000111011101100111 $
#581
b10011110111110001110100 $
#582
b11001101000111101111111 $
#583
b10010101000001001101010 $
#584
b10101011000100001110111 $
#585
b10110001000101101110100 $
#586
b11001111001011110000010 $
#587
b11100111001011110001100 $
#588
b11011101001000110000011 $
#589
b11100011001001010000010 $
#590
b11100011001010010000010 $
#591
b11111101001110110001011 $
#592
b10111111000101101110101 $
#593
b11100001001100010000110 $
#594
b11010111001010010000011 $
#595
b10111011000111101111100 $
#596
b11011111001010010000001 $
#597
b11001101001001110000000 $
#598
b11010001001000110000110 $
#599
b10111101000001101111010 $
#600
b11101001001100110001011 $
#601
b11001111001100010001011 $
#602
b11000011001010010001001 $
#603
b11000101001010010000100 $
#604
b10101001000101101110111 $
#605
b10101001000100001110101 $
#606
b11001011001100010000101 $
#607
b10101111000111001111010 $
#608
b10110011000100101111000 $
#609
b10011101000010001110101 $
#610
b10101101000101001111100 $
#611
b10101101000100101111011 $
#612
b11011001001000101111111 $
#613
b10110101000011001101111 $
#614
b11011111001100101111111 $
#615
b11011101001100001111110 $
#616
b10100001000010001101100 $
#617
b11010111001010010000011 $
#618
b11010111001000101111101 $
#619
b10001110111111001100010 $
#620
b10111011000101001110100 $
#621
b10100001000001101101001 $
#622
b11100011001010010000110 $
#623
b10111111000100101111001 $
#624
b10110101000101101110100 $
#625
b10110001000101001111000 $
#626
b11100011001000110001011 $
#627
b100000011001110010010000 $
#628
b11010101001001110000100 $
#629
b11000011000011001110110 $
#630
b11101001001111110001001 $
#631
b11010001001001010000101 $
#632
b10001000111010001100001 $
#633
b10110001000000001110010 $
#634
b10001110111111101100110 $
#635
b10101000111100101100101 $
#636
b10110000111111101101010 $
#637
b10110110111110001110100 $
#638
b10110000111101101101101 $
#639
b10000110110101101011000 $
#640
b1001000101011000111100 $
#641
b1101110101111101001010 $
#642
b10100010111001001011100 $
#643
b10011100111000001011000 $
#644
b10000100110100101010100 $
#645
b1111010110010101001011 $
#646
b10001000110101101010100 $
#647
b10011100110101101011010 $
#648
b10111110111100001100101 $
#649
b11101100111111001110100 $
#650
b11101000111101101101110 $
#651
b100100011001001010001010 $
#652
b101100101010101110100110 $
#653
b101101101011000010101111 $
#654
b101111101011100110111001 $
#655
b110100111100111111010000 $
#656
b110111001101101111011011 $
#657
b111010011110010111100111 $
#658
b111000111110000111100001 $
#659
b111000101101111011011101 $
#660
b110111001101011011010101 $
#661
b101111111100001010111101 $
#662
b110111001101011011010101 $
#663
b110111011101011011010101 $
#664
b101000111011000110100111 $
#665
b11011100111110101111000 $
#666
b11010100111010001110000 $
#667
b1100000100000100111010 $
#668
b1110000101000001000111 $
#669
b1101010100101001000000 $
#670
b1100010101111101000111 $
#671
b111110010101000100101 $
#672
b1100100100101100111100 $
#673
b10000010101101101001000 $
#674
b1000000011000000100111 $
#675
b1001010011101000101110 $
#676
b1010000100000100111000 $
#677
b1101100100010001000010 $
#678
b110011011100010111000101 $
#679
b111110111111010111110101 $
#680
b111110111111011011111000 $
#681
b111101011110111111110100 $
#682
b111101111111000111110011 $
#683
b111101101111000011110001 $
#684
b111100111110101111101100 $
#685
b111011111110010111100100 $
#686
b111001101101110111011011 $
#687
b111010001101110111011011 $
#688
b111011001110000111011110 $
#689
b111011011110000111011110 $
#690
b111010011101110111011000 $
#691
b110010101100010111000000 $
#692
b101011011011000010101100 $
#693
b100010001010000010010001 $
#694
b100011011001111010010010 $
#695
b100110101010110110011111 $
#696
b100011101010010110101000 $
#697
b11111101001110010101000 $
#698
b11111101001110110100000 $
#699
b100010001010010010100110 $
#700
b11101001001101010100011 $
#701
b100001011010100110101000 $
#702
b11111011001100110101110 $
#703
b11101011001000110110100 $
#704
b11111001001101010111110 $
#705
b11100101001110110100100 $
#706
b11000111001001010001111 $
#707
b11111101010001010011101 $
#708
b11011111001110010000100 $
#709
b11001101001001101111101 $
#710
b10111011000100101110001 $
#711
b10111101001101001111001 $
#712
b10110101001010101111000 $
#713
b11010001001100001111101 $
#714
b11110111010001010001010 $
#715
b11101111010011110001000 $
#716
b11111111010001110001001 $
#717
b11101001001101110000011 $
#718
b100000111010101010010011 $
#719
b11001111001110001111100 $
#720
b10110111001010101110100 $
#721
b100001101010111110010010 $
#722
b100000011010011110010000 $
#723
b11110001010000110001001 $
#724
b11110011001110110000000 $
#725
b11100011001010101111010 $
#726
b11010111001011010000000 $
#727
b100000111010010110010100 $
#728
b100000011010010110010011 $
#729
b11110101010001110001010 $
#730
b11010001001000101110111 $
#731
b11111001010010010001000 $
#732
b100010011010101010010010 $
#733
b11011101001111110000000 $
#734
b11001001001011101110111 $
#735
b11100111001101010000001 $
#736
b11111011010100010001011 $
#737
b11100011001110010000110 $
#738
b11010111001010010000100 $
#739
b11111101001101110001101 $
#740
b11100101001010010000010 $
#741
b11111101010010010001010 $
#742
b11110011001111010000010 $
#743
b11101001001101010000101 $
#744
b11110011001101110000010 $
#745
b11100001001001001111101 $
#746
b11111011001011010000010 $
#747
b11011101001010010000001 $
#748
b11001101001010001111101 $
#749
b11001011000100001111100 $
#750
b10101111000100001101101 $
#751
b11011111001110001111100 $
#752
b11011011001101001110110 $
#753
b11100011010000010000001 $
#754
b11101001001110110001000 $
#755
b10110101001010001111101 $
#756
b11011011001101101111011 $
#757
b11110111010010110001001 $
#758
b11010101001110101111100 $
#759
b11000111001000101110111 $
#760
b11110111010000010001001 $
#761
b100111101011011110100001 $
#762
b100011101011000110100101 $
#763
b11100001010000010001000 $
#764
b100010001010111110010100 $
#765
b100000101010111110010110 $
#766
b10111001010001110000100 $
#767
b11110001010010110001011 $
#768
b11100111001110010000000 $
#769
b11011111001100010000010 $
#770
b11101001001111010000101 $
#771
b11110011001010110000110 $
#772
b11111011001111110001100 $
#773
b11110011001101010001001 $
#774
b11000111001100110001111 $
#775
b1010111000111010001110 $
#776
b1011111001010110001111 $
#777
b1101011001111110011001 $
#778
b1110001010000010100011 $
#779
b1101101001111010100101 $
#780
b10001001010000110100111 $
#781
b11111001011101010111001 $
#782
b10110001010110010110110 $
#783
b1111001010001010110101 $
#784
b10111101010011010101000 $
#785
b100100001010111010011001 $
#786
b100100001011000010010101 $
#787
b100001011010011110010001 $
#788
b100011011010101010010010 $
#789
b11111111010011010001101 $
#790
b11110111010100110001110 $
#791
b11111001010101010010000 $
#792
b11110011010100010001000 $
#793
b11110011010100110001010 $
#794
b100001001010110010010010 $
#795
b100001001010110010011000 $
#796
b11111001010010010001010 $
#797
b11111001010001110000100 $
#798
b11110001010000010000011 $
#799
b11111011010011010001011 $
#800
b11110011010011110010010 $
#801
b100010001011000110010111 $
#802
b11111011010100110001010 $
#803
b100011001010111110001110 $
#804
b100000101010110010001110 $
#805
b11010111001110110000010 $
#806
b11011011001100110000100 $
#807
b11100101010000110000010 $
#808
b11001111001101101111011 $
#809
b100000001010011110001010 $
#810
b100001111010101110001110 $
#811
b11101101010001010001001 $
#812
b11001001001100101111011 $
#813
b10110111001000001101111 $
#814
b11010001001101101111101 $
#815
b11011001001110110000010 $
#816
b11101111010010010001110 $
#817
b11101001001110110001101 $
#818
b11100111010001110001000 $
#819
b11101101010100010001110 $
#820
b11110011010001010001101 $
#821
b11110011001110110001100 $
#822
b11011011001011010000101 $
#823
b11110011010010110001000 $
#824
b11010111001111010000011 $
#825
b11011011001111001111111 $
#826
b11101001010000010000011 $
#827
b11001101001011101111100 $
#828
b11110101010001010001010 $
#829
b100000001010010110001110 $
#830
b11111011010010110001001 $
#831
b100000011010100110001111 $
#832
b11001001000011001110000 $
#833
b10100001000001001101101 $
#834
b10000100111010101100100 $
#835
b10001010111100101100001 $
#836
b10011000111111001100101 $
#837
b10100111000011101101110 $
#838
b10010001000000001101100 $
#839
b11001001000110110000001 $
#840
b10011101000000001101001 $
#841
b1111110111010001011110 $
#842
b10011000111101101100110 $
#843
b10001100111011101011111 $
#844
b1111100111011001011011 $
#845
b11001001000100101111100 $
#846
b11001001000100101111001 $
#847
b10101101000001001101011 $
#848
b10010010111111001100111 $
#849
b10010000111101001100010 $
#850
b10010010111110001011111 $
#851
b1110110111010001010101 $
#852
b10001010111011001011101 $
#853
b1110110111000001010110 $
#854
b10101011000010001101101 $
#855
b10011011000001001100111 $
#856
b10010000111110001100000 $
#857
b10100111000010001101011 $
#858
b10010100111110101100111 $
#859
b10010000111111001100110 $
#860
b1100100111000001010000 $
#861
b10000100111101001011111 $
#862
b1100100111011001011001 $
#863
b1111100111100001011110 $
#864
b10110000111111001101110 $
#865
b10100000111111001101111 $
#866
b10001100111110101110001 $
#867
b10100001000001001101101 $
#868
b10010110111111001110001 $
#869
b10010110111100101100110 $
#870
b10101011000010101101101 $
#871
b10001110111101001100101 $
#872
b10101011000010001101010 $
#873
b10111101000101101110101 $
#874
b11011011001000101111111 $
#875
b10011111000000101101010 $
#876
b10110011000011101110010 $
#877
b10110111000010001110001 $
#878
b10000000111100101011100 $
#879
b10011101000010101101100 $
#880
b10100011000000001101110 $
#881
b10101001000000101110000 $
#882
b11000001000100001110010 $
#883
b10111101000010101101110 $
#884
b10111101000111101110010 $
#885
b10111011000111001110010 $
#886
b11001011000111001110101 $
#887
b11010101001010001111000 $
#888
b11001101001001101111001 $
#889
b11100101001011110000110 $
#890
b11010001001010101111111 $
#891
b10101011000111001110000 $
#892
b11000011001000101111000 $
#893
b11100001001011010000001 $
#894
b10001100111100101100010 $
#895
b10011001000100001101110 $
#896
b10110111000101001110011 $
#897
b11000011000001101110010 $
#898
b10100101000000001101110 $
#899
b10100011000001001101101 $
#900
b10011111000001001110000 $
#901
b10101111000011101110111 $
#902
b11000011000111101111111 $
#903
b10101001000011101110100 $
#904
b11000101001000110000000 $
#905
b11100111001110110010000 $
#906
b11000011001100001111101 $
#907
b11001011001011010000000 $
#908
b11011101001010010000011 $
#909
b100011101010011010011010 $
#910
b100001011001111010010110 $
#911
b11011001000100101111100 $
#912
b11011011001001010000111 $
#913
b11010001001000010000100 $
#914
b11101001001010010000110 $
#915
b10011100111110001100111 $
#916
b11000011000110101110101 $
#917
b11111011001110010001101 $
#918
b11001111001001010000100 $
#919
b11001111001000110000001 $
#920
b11010111001010010000001 $
#921
b11001111001010010001010 $
#922
b11001111001011110001100 $
#923
b10100101001001001111101 $
#924
b10110011000110101111011 $
#925
b10011111000011101110100 $
#926
b11010111001011110010001 $
#927
b11001101001011010000000 $
#928
b11000011000111010000011 $
#929
b10100011000011001110111 $
#930
b10110001000100101110111 $
#931
b10100111000101101110110 $
#932
b10100111000011101101011 $
#933
b11000001001010001111100 $
#934
b10111111000110101110111 $
#935
b11111111010001110010100 $
#936
b11001011000111101111011 $
#937
b10101011000011001110110 $
#938
b11001001001001001111010 $
#939
b10010111000100001101010 $
#940
b11000001000110101110100 $
#941
b10111101000101101111101 $
#942
b11011101000111110000100 $
#943
b10111001000011001101110 $
#944
b10111101000010101110100 $
#945
b10110011000101001110101 $
#946
b10110011000100001110011 $
#947
b11101111001100010001010 $
#948
b11011111001011001111110 $
#949
b11100011001011110000011 $
#950
b11111001001100110001110 $
#951
b10101101000000001101111 $
#952
b10010010111100001100100 $
#953
b10100011000000101101100 $
#954
b10001001000000101100110 $
#955
b10110101000000001100110 $
#956
b10111101000010001101111 $
#957
b10011110111011001100100 $
#958
b1100010110011001001010 $
#959
b1110010110011101001100 $
#960
b1010000101011100111101 $
#961
b1110110110000101001011 $
#962
b10111010111100001100000 $
#963
b10001110110110101010101 $
#964
b10001100110110001010111 $
#965
b10000000110100001001111 $
#966
b1111100110100101010011 $
#967
b10001110110011101010011 $
#968
b10101010110111001011101 $
#969
b100010101000110110000011 $
#970
b100110001001010110001100 $
#971
b101110011010111110101010 $
#972
b101110011011001010101111 $
#973
b101011011010110010101100 $
#974
b101111001011011110110111 $
#975
b110101011101000111010000 $
#976
b111001111110001111100100 $
#977
b111010011110010111100111 $
#978
b111010011110010111100110 $
#979
b111000101101110111011101 $
#980
b110110101101011011010011 $
#981
b110010101100101011000110 $
#982
b111000011101100111011000 $
#983
b110000111011110110111101 $
#984
b100011101001111110010100 $
#985
b10011110101110001010110 $
#986
b10100100101011101010101 $
#987
b1101110011111000111101 $
#988
b111010011001000101001 $
#989
b110100010100100100011 $
#990
b1101100110001001001011 $
#991
b1001000011001000101101 $
#992
b1001000011100100101110 $
#993
b1010100011110100101111 $
#994
b1100010100001100111000 $
#995
b1001110011100100101110 $
#996
b1011010100001000111011 $
#997
b1011100011100000111000 $
#998
b101110001011000110110001 $
#999
b111111011111011011110111 $
#1000
b111111001111011011110111 $
#1001
b111110101111010011110110 $
#1002
b111110011111001111110100 $
#1003
b111110001111000111110010 $
#1004
b111100111110101111101100 $
#1005
b111011101110010111100100 $
#1006
b111100001110011011100011 $
#1007
b111011111110001111100000 $
#1008
b111011101110000111011110 $
#1009
b111011111110001111011110 $
#1010
b111001101101101011010111 $
#1011
b110011101100011111000011 $
#1012
b101110001011101010110101 $
#1013
b101010001010111110101000 $
#1014
b101001001010111110100110 $
#1015
b101011101011100110101011 $
#1016
b101010011011001010110110 $
#1017
b100100011001111110110101 $
#1018
b100001001001110110101001 $
#1019
b11111001001101010100001 $
#1020
b11011001001000110011101 $
#1021
b11010101001011010011101 $
#1022
b100000111010000010110000 $
#1023
b100000101001110110111100 $
